^D:\VISUALSTUDIO2017PROJECTS\SPAMGUIEDITOR\SPAMGUIEDITOR\RELEASE\APPLICATION.OBJ|D:\VISUALSTUDIO2017PROJECTS\SPAMGUIEDITOR\SPAMGUIEDITOR\RELEASE\BFF_FONT.OBJ|D:\VISUALSTUDIO2017PROJECTS\SPAMGUIEDITOR\SPAMGUIEDITOR\RELEASE\FPS.OBJ|D:\VISUALSTUDIO2017PROJECTS\SPAMGUIEDITOR\SPAMGUIEDITOR\RELEASE\GUIBUTTON.OBJ|D:\VISUALSTUDIO2017PROJECTS\SPAMGUIEDITOR\SPAMGUIEDITOR\RELEASE\GUICHECKBOX.OBJ|D:\VISUALSTUDIO2017PROJECTS\SPAMGUIEDITOR\SPAMGUIEDITOR\RELEASE\GUIEDITBOX.OBJ|D:\VISUALSTUDIO2017PROJECTS\SPAMGUIEDITOR\SPAMGUIEDITOR\RELEASE\GUIEDITOR.OBJ|D:\VISUALSTUDIO2017PROJECTS\SPAMGUIEDITOR\SPAMGUIEDITOR\RELEASE\GUIFILEDIALOG.OBJ|D:\VISUALSTUDIO2017PROJECTS\SPAMGUIEDITOR\SPAMGUIEDITOR\RELEASE\GUIINPUT.OBJ|D:\VISUALSTUDIO2017PROJECTS\SPAMGUIEDITOR\SPAMGUIEDITOR\RELEASE\GUILAYOUT.OBJ|D:\VISUALSTUDIO2017PROJECTS\SPAMGUIEDITOR\SPAMGUIEDITOR\RELEASE\GUIMANAGER.OBJ|D:\VISUALSTUDIO2017PROJECTS\SPAMGUIEDITOR\SPAMGUIEDITOR\RELEASE\GUIRADIOBUTTON.OBJ|D:\VISUALSTUDIO2017PROJECTS\SPAMGUIEDITOR\SPAMGUIEDITOR\RELEASE\GUIREFBUTTON.OBJ|D:\VISUALSTUDIO2017PROJECTS\SPAMGUIEDITOR\SPAMGUIEDITOR\RELEASE\GUIRENDERER.OBJ|D:\VISUALSTUDIO2017PROJECTS\SPAMGUIEDITOR\SPAMGUIEDITOR\RELEASE\GUIRENDERERSDL.OBJ|D:\VISUALSTUDIO2017PROJECTS\SPAMGUIEDITOR\SPAMGUIEDITOR\RELEASE\GUISCROLLBAR.OBJ|D:\VISUALSTUDIO2017PROJECTS\SPAMGUIEDITOR\SPAMGUIEDITOR\RELEASE\GUISHOPDIALOG.OBJ|D:\VISUALSTUDIO2017PROJECTS\SPAMGUIEDITOR\SPAMGUIEDITOR\RELEASE\GUITEXT.OBJ|D:\VISUALSTUDIO2017PROJECTS\SPAMGUIEDITOR\SPAMGUIEDITOR\RELEASE\GUITREEVIEW.OBJ|D:\VISUALSTUDIO2017PROJECTS\SPAMGUIEDITOR\SPAMGUIEDITOR\RELEASE\GUITREEVIEWLAYOUTNODE.OBJ|D:\VISUALSTUDIO2017PROJECTS\SPAMGUIEDITOR\SPAMGUIEDITOR\RELEASE\GUITREEVIEWNODE.OBJ|D:\VISUALSTUDIO2017PROJECTS\SPAMGUIEDITOR\SPAMGUIEDITOR\RELEASE\GUIWINDOW.OBJ|D:\VISUALSTUDIO2017PROJECTS\SPAMGUIEDITOR\SPAMGUIEDITOR\RELEASE\MAIN.OBJ|D:\VISUALSTUDIO2017PROJECTS\SPAMGUIEDITOR\SPAMGUIEDITOR\RELEASE\SERIALIZEDDATA.OBJ
C:\PROGRAM FILES (X86)\WINDOWS KITS\10\LIB\10.0.17134.0\UM\X86\KERNEL32.LIB
C:\PROGRAM FILES (X86)\WINDOWS KITS\10\LIB\10.0.17134.0\UM\X86\USER32.LIB
C:\PROGRAM FILES (X86)\WINDOWS KITS\10\LIB\10.0.17134.0\UM\X86\GDI32.LIB
C:\PROGRAM FILES (X86)\WINDOWS KITS\10\LIB\10.0.17134.0\UM\X86\WINSPOOL.LIB
C:\PROGRAM FILES (X86)\WINDOWS KITS\10\LIB\10.0.17134.0\UM\X86\COMDLG32.LIB
C:\PROGRAM FILES (X86)\WINDOWS KITS\10\LIB\10.0.17134.0\UM\X86\ADVAPI32.LIB
C:\PROGRAM FILES (X86)\WINDOWS KITS\10\LIB\10.0.17134.0\UM\X86\SHELL32.LIB
C:\PROGRAM FILES (X86)\WINDOWS KITS\10\LIB\10.0.17134.0\UM\X86\OLE32.LIB
C:\PROGRAM FILES (X86)\WINDOWS KITS\10\LIB\10.0.17134.0\UM\X86\OLEAUT32.LIB
C:\PROGRAM FILES (X86)\WINDOWS KITS\10\LIB\10.0.17134.0\UM\X86\UUID.LIB
C:\PROGRAM FILES (X86)\WINDOWS KITS\10\LIB\10.0.17134.0\UM\X86\ODBC32.LIB
C:\PROGRAM FILES (X86)\WINDOWS KITS\10\LIB\10.0.17134.0\UM\X86\ODBCCP32.LIB
D:\VISUALSTUDIO2017PROJECTS\SPAMGUIEDITOR\SPAMGUIEDITOR\RELEASE\BFF_FONT.OBJ
D:\VISUALSTUDIO2017PROJECTS\SPAMGUIEDITOR\SPAMGUIEDITOR\RELEASE\GUIBUTTON.OBJ
D:\VISUALSTUDIO2017PROJECTS\SPAMGUIEDITOR\SPAMGUIEDITOR\RELEASE\GUICHECKBOX.OBJ
D:\VISUALSTUDIO2017PROJECTS\SPAMGUIEDITOR\SPAMGUIEDITOR\RELEASE\GUIEDITBOX.OBJ
D:\VISUALSTUDIO2017PROJECTS\SPAMGUIEDITOR\SPAMGUIEDITOR\RELEASE\GUIEDITOR.OBJ
D:\VISUALSTUDIO2017PROJECTS\SPAMGUIEDITOR\SPAMGUIEDITOR\RELEASE\GUIFILEDIALOG.OBJ
D:\VISUALSTUDIO2017PROJECTS\SPAMGUIEDITOR\SPAMGUIEDITOR\RELEASE\GUIINPUT.OBJ
D:\VISUALSTUDIO2017PROJECTS\SPAMGUIEDITOR\SPAMGUIEDITOR\RELEASE\GUILAYOUT.OBJ
D:\VISUALSTUDIO2017PROJECTS\SPAMGUIEDITOR\SPAMGUIEDITOR\RELEASE\GUIMANAGER.OBJ
D:\VISUALSTUDIO2017PROJECTS\SPAMGUIEDITOR\SPAMGUIEDITOR\RELEASE\GUIRADIOBUTTON.OBJ
D:\VISUALSTUDIO2017PROJECTS\SPAMGUIEDITOR\SPAMGUIEDITOR\RELEASE\GUIREFBUTTON.OBJ
D:\VISUALSTUDIO2017PROJECTS\SPAMGUIEDITOR\SPAMGUIEDITOR\RELEASE\GUIRENDERER.OBJ
D:\VISUALSTUDIO2017PROJECTS\SPAMGUIEDITOR\SPAMGUIEDITOR\RELEASE\GUIRENDERERSDL.OBJ
D:\VISUALSTUDIO2017PROJECTS\SPAMGUIEDITOR\SPAMGUIEDITOR\RELEASE\GUISCROLLBAR.OBJ
D:\VISUALSTUDIO2017PROJECTS\SPAMGUIEDITOR\SPAMGUIEDITOR\RELEASE\GUISHOPDIALOG.OBJ
D:\VISUALSTUDIO2017PROJECTS\SPAMGUIEDITOR\SPAMGUIEDITOR\RELEASE\GUITEXT.OBJ
D:\VISUALSTUDIO2017PROJECTS\SPAMGUIEDITOR\SPAMGUIEDITOR\RELEASE\GUITREEVIEW.OBJ
D:\VISUALSTUDIO2017PROJECTS\SPAMGUIEDITOR\SPAMGUIEDITOR\RELEASE\GUITREEVIEWLAYOUTNODE.OBJ
D:\VISUALSTUDIO2017PROJECTS\SPAMGUIEDITOR\SPAMGUIEDITOR\RELEASE\GUITREEVIEWNODE.OBJ
D:\VISUALSTUDIO2017PROJECTS\SPAMGUIEDITOR\SPAMGUIEDITOR\RELEASE\GUIWINDOW.OBJ
D:\VISUALSTUDIO2017PROJECTS\SPAMGUIEDITOR\SPAMGUIEDITOR\RELEASE\SERIALIZEDDATA.OBJ
D:\VISUALSTUDIO2017PROJECTS\SPAMGUIEDITOR\SPAMGUIEDITOR\RELEASE\APPLICATION.OBJ
D:\VISUALSTUDIO2017PROJECTS\SPAMGUIEDITOR\SPAMGUIEDITOR\RELEASE\FPS.OBJ
D:\VISUALSTUDIO2017PROJECTS\SPAMGUIEDITOR\SPAMGUIEDITOR\RELEASE\MAIN.OBJ
C:\WINDOWS\GLOBALIZATION\SORTING\SORTDEFAULT.NLS
C:\PROGRAM FILES (X86)\MICROSOFT VISUAL STUDIO\2017\COMMUNITY\VC\TOOLS\MSVC\14.15.26726\BIN\HOSTX86\X86\C2.DLL
C:\PROGRAM FILES (X86)\MICROSOFT VISUAL STUDIO\2017\COMMUNITY\VC\TOOLS\MSVC\14.15.26726\LIB\X86\MSVCPRT.LIB
C:\PROGRAM FILES (X86)\MICROSOFT VISUAL STUDIO\2017\COMMUNITY\VC\TOOLS\MSVC\14.15.26726\LIB\X86\MSVCRT.LIB
C:\PROGRAM FILES (X86)\MICROSOFT VISUAL STUDIO\2017\COMMUNITY\VC\TOOLS\MSVC\14.15.26726\LIB\X86\OLDNAMES.LIB
C:\PROGRAM FILES (X86)\MICROSOFT VISUAL STUDIO\2017\COMMUNITY\VC\TOOLS\MSVC\14.15.26726\LIB\X86\FREEIMAGE.LIB
C:\PROGRAM FILES (X86)\MICROSOFT VISUAL STUDIO\2017\COMMUNITY\VC\TOOLS\MSVC\14.15.26726\LIB\X86\SDL2.LIB
C:\PROGRAM FILES (X86)\MICROSOFT VISUAL STUDIO\2017\COMMUNITY\VC\TOOLS\MSVC\14.15.26726\LIB\X86\VCRUNTIME.LIB
C:\PROGRAM FILES (X86)\WINDOWS KITS\10\LIB\10.0.17134.0\UCRT\X86\UCRT.LIB
C:\PROGRAM FILES (X86)\MICROSOFT VISUAL STUDIO\2017\COMMUNITY\VC\TOOLS\MSVC\14.15.26726\BIN\HOSTX86\X86\1033\LINKUI.DLL
C:\PROGRAM FILES (X86)\WINDOWS KITS\10\BIN\10.0.17134.0\X86\RC.EXE
C:\PROGRAM FILES (X86)\MICROSOFT VISUAL STUDIO\2017\COMMUNITY\VC\TOOLS\MSVC\14.15.26726\BIN\HOSTX86\X86\CVTRES.EXE
C:\WINDOWS\SYSTEM32\TZRES.DLL
