^D:\VisualStudio2017Projects\SpamGuiEditor\SpamGuiEditor\SpamGuiEditor.vcxproj
D:\VisualStudio2017Projects\SpamGuiEditor\Release\SpamGuiEditor.ipdb
D:\VisualStudio2017Projects\SpamGuiEditor\Release\SpamGuiEditor.iobj
^D:\VisualStudio2017Projects\SpamGuiEditor\SpamGuiEditor\SpamGuiEditor.vcxproj
D:\VisualStudio2017Projects\SpamGuiEditor\Release\SpamGuiEditor.ipdb
D:\VisualStudio2017Projects\SpamGuiEditor\Release\SpamGuiEditor.iobj
^D:\VisualStudio2017Projects\SpamGuiEditor\SpamGuiEditor\SpamGuiEditor.vcxproj
D:\VisualStudio2017Projects\SpamGuiEditor\Release\SpamGuiEditor.ipdb
D:\VisualStudio2017Projects\SpamGuiEditor\Release\SpamGuiEditor.iobj
^D:\VisualStudio2017Projects\SpamGuiEditor\SpamGuiEditor\SpamGuiEditor.vcxproj
D:\VisualStudio2017Projects\SpamGuiEditor\Release\SpamGuiEditor.ipdb
D:\VisualStudio2017Projects\SpamGuiEditor\Release\SpamGuiEditor.iobj
^D:\VisualStudio2017Projects\SpamGuiEditor\SpamGuiEditor\SpamGuiEditor.vcxproj
D:\VisualStudio2017Projects\SpamGuiEditor\Release\SpamGuiEditor.ipdb
D:\VisualStudio2017Projects\SpamGuiEditor\Release\SpamGuiEditor.iobj
^D:\VisualStudio2017Projects\SpamGuiEditor\SpamGuiEditor\SpamGuiEditor.vcxproj
D:\VisualStudio2017Projects\SpamGuiEditor\Release\SpamGuiEditor.ipdb
D:\VisualStudio2017Projects\SpamGuiEditor\Release\SpamGuiEditor.iobj
^D:\VisualStudio2017Projects\SpamGuiEditor\SpamGuiEditor\SpamGuiEditor.vcxproj
D:\VisualStudio2017Projects\SpamGuiEditor\Release\SpamGuiEditor.ipdb
D:\VisualStudio2017Projects\SpamGuiEditor\Release\SpamGuiEditor.iobj
^D:\VisualStudio2017Projects\SpamGuiEditor\SpamGuiEditor\SpamGuiEditor.vcxproj
D:\VisualStudio2017Projects\SpamGuiEditor\Release\SpamGuiEditor.ipdb
D:\VisualStudio2017Projects\SpamGuiEditor\Release\SpamGuiEditor.iobj
^D:\VisualStudio2017Projects\SpamGuiEditor\SpamGuiEditor\SpamGuiEditor.vcxproj
D:\VisualStudio2017Projects\SpamGuiEditor\Release\SpamGuiEditor.ipdb
D:\VisualStudio2017Projects\SpamGuiEditor\Release\SpamGuiEditor.iobj
^D:\VisualStudio2017Projects\SpamGuiEditor\SpamGuiEditor\SpamGuiEditor.vcxproj
D:\VisualStudio2017Projects\SpamGuiEditor\Release\SpamGuiEditor.ipdb
D:\VisualStudio2017Projects\SpamGuiEditor\Release\SpamGuiEditor.iobj
^D:\VisualStudio2017Projects\SpamGuiEditor\SpamGuiEditor\SpamGuiEditor.vcxproj
D:\VisualStudio2017Projects\SpamGuiEditor\Release\SpamGuiEditor.ipdb
D:\VisualStudio2017Projects\SpamGuiEditor\Release\SpamGuiEditor.iobj
^D:\VisualStudio2017Projects\SpamGuiEditor\SpamGuiEditor\SpamGuiEditor.vcxproj
D:\VisualStudio2017Projects\SpamGuiEditor\Release\SpamGuiEditor.ipdb
D:\VisualStudio2017Projects\SpamGuiEditor\Release\SpamGuiEditor.iobj
^D:\VisualStudio2017Projects\SpamGuiEditor\SpamGuiEditor\SpamGuiEditor.vcxproj
D:\VisualStudio2017Projects\SpamGuiEditor\Release\SpamGuiEditor.ipdb
D:\VisualStudio2017Projects\SpamGuiEditor\Release\SpamGuiEditor.iobj
^D:\VisualStudio2017Projects\SpamGuiEditor\SpamGuiEditor\SpamGuiEditor.vcxproj
D:\VisualStudio2017Projects\SpamGuiEditor\Release\SpamGuiEditor.ipdb
D:\VisualStudio2017Projects\SpamGuiEditor\Release\SpamGuiEditor.iobj
^D:\VisualStudio2017Projects\SpamGuiEditor\SpamGuiEditor\SpamGuiEditor.vcxproj
D:\VisualStudio2017Projects\SpamGuiEditor\Release\SpamGuiEditor.ipdb
D:\VisualStudio2017Projects\SpamGuiEditor\Release\SpamGuiEditor.iobj
^D:\VisualStudio2017Projects\SpamGuiEditor\SpamGuiEditor\SpamGuiEditor.vcxproj
D:\VisualStudio2017Projects\SpamGuiEditor\Release\SpamGuiEditor.ipdb
D:\VisualStudio2017Projects\SpamGuiEditor\Release\SpamGuiEditor.iobj
^D:\VisualStudio2017Projects\SpamGuiEditor\SpamGuiEditor\SpamGuiEditor.vcxproj
D:\VisualStudio2017Projects\SpamGuiEditor\Release\SpamGuiEditor.ipdb
D:\VisualStudio2017Projects\SpamGuiEditor\Release\SpamGuiEditor.iobj
^D:\VisualStudio2017Projects\SpamGuiEditor\SpamGuiEditor\SpamGuiEditor.vcxproj
D:\VisualStudio2017Projects\SpamGuiEditor\Release\SpamGuiEditor.ipdb
D:\VisualStudio2017Projects\SpamGuiEditor\Release\SpamGuiEditor.iobj
^D:\VisualStudio2017Projects\SpamGuiEditor\SpamGuiEditor\SpamGuiEditor.vcxproj
D:\VisualStudio2017Projects\SpamGuiEditor\Release\SpamGuiEditor.ipdb
D:\VisualStudio2017Projects\SpamGuiEditor\Release\SpamGuiEditor.iobj
^D:\VisualStudio2017Projects\SpamGuiEditor\SpamGuiEditor\SpamGuiEditor.vcxproj
D:\VisualStudio2017Projects\SpamGuiEditor\Release\SpamGuiEditor.ipdb
D:\VisualStudio2017Projects\SpamGuiEditor\Release\SpamGuiEditor.iobj
^D:\VisualStudio2017Projects\SpamGuiEditor\SpamGuiEditor\SpamGuiEditor.vcxproj
D:\VisualStudio2017Projects\SpamGuiEditor\Release\SpamGuiEditor.ipdb
D:\VisualStudio2017Projects\SpamGuiEditor\Release\SpamGuiEditor.iobj
^D:\VisualStudio2017Projects\SpamGuiEditor\SpamGuiEditor\SpamGuiEditor.vcxproj
D:\VisualStudio2017Projects\SpamGuiEditor\Release\SpamGuiEditor.ipdb
D:\VisualStudio2017Projects\SpamGuiEditor\Release\SpamGuiEditor.iobj
^D:\VisualStudio2017Projects\SpamGuiEditor\SpamGuiEditor\SpamGuiEditor.vcxproj
D:\VisualStudio2017Projects\SpamGuiEditor\Release\SpamGuiEditor.ipdb
D:\VisualStudio2017Projects\SpamGuiEditor\Release\SpamGuiEditor.iobj
^D:\VisualStudio2017Projects\SpamGuiEditor\SpamGuiEditor\SpamGuiEditor.vcxproj
D:\VisualStudio2017Projects\SpamGuiEditor\Release\SpamGuiEditor.ipdb
D:\VisualStudio2017Projects\SpamGuiEditor\Release\SpamGuiEditor.iobj
^D:\VisualStudio2017Projects\SpamGuiEditor\SpamGuiEditor\SpamGuiEditor.vcxproj
D:\VisualStudio2017Projects\SpamGuiEditor\Release\SpamGuiEditor.ipdb
D:\VisualStudio2017Projects\SpamGuiEditor\Release\SpamGuiEditor.iobj
^D:\VisualStudio2017Projects\SpamGuiEditor\SpamGuiEditor\SpamGuiEditor.vcxproj
D:\VisualStudio2017Projects\SpamGuiEditor\Release\SpamGuiEditor.ipdb
D:\VisualStudio2017Projects\SpamGuiEditor\Release\SpamGuiEditor.iobj
^D:\VisualStudio2017Projects\SpamGuiEditor\SpamGuiEditor\SpamGuiEditor.vcxproj
D:\VisualStudio2017Projects\SpamGuiEditor\Release\SpamGuiEditor.ipdb
D:\VisualStudio2017Projects\SpamGuiEditor\Release\SpamGuiEditor.iobj
^D:\VisualStudio2017Projects\SpamGuiEditor\SpamGuiEditor\SpamGuiEditor.vcxproj
D:\VisualStudio2017Projects\SpamGuiEditor\Release\SpamGuiEditor.ipdb
D:\VisualStudio2017Projects\SpamGuiEditor\Release\SpamGuiEditor.iobj
^D:\VisualStudio2017Projects\SpamGuiEditor\SpamGuiEditor\SpamGuiEditor.vcxproj
D:\VisualStudio2017Projects\SpamGuiEditor\Release\SpamGuiEditor.ipdb
D:\VisualStudio2017Projects\SpamGuiEditor\Release\SpamGuiEditor.iobj
^D:\VisualStudio2017Projects\SpamGuiEditor\SpamGuiEditor\SpamGuiEditor.vcxproj
D:\VisualStudio2017Projects\SpamGuiEditor\Release\SpamGuiEditor.ipdb
D:\VisualStudio2017Projects\SpamGuiEditor\Release\SpamGuiEditor.iobj
^D:\VisualStudio2017Projects\SpamGuiEditor\SpamGuiEditor\SpamGuiEditor.vcxproj
D:\VisualStudio2017Projects\SpamGuiEditor\Release\SpamGuiEditor.ipdb
D:\VisualStudio2017Projects\SpamGuiEditor\Release\SpamGuiEditor.iobj
^D:\VisualStudio2017Projects\SpamGuiEditor\SpamGuiEditor\SpamGuiEditor.vcxproj
D:\VisualStudio2017Projects\SpamGuiEditor\Release\SpamGuiEditor.ipdb
D:\VisualStudio2017Projects\SpamGuiEditor\Release\SpamGuiEditor.iobj
^D:\VisualStudio2017Projects\SpamGuiEditor\SpamGuiEditor\SpamGuiEditor.vcxproj
D:\VisualStudio2017Projects\SpamGuiEditor\Release\SpamGuiEditor.ipdb
D:\VisualStudio2017Projects\SpamGuiEditor\Release\SpamGuiEditor.iobj
^D:\VisualStudio2017Projects\SpamGuiEditor\SpamGuiEditor\SpamGuiEditor.vcxproj
D:\VisualStudio2017Projects\SpamGuiEditor\Release\SpamGuiEditor.ipdb
D:\VisualStudio2017Projects\SpamGuiEditor\Release\SpamGuiEditor.iobj
^D:\VisualStudio2017Projects\SpamGuiEditor\SpamGuiEditor\SpamGuiEditor.vcxproj
D:\VisualStudio2017Projects\SpamGuiEditor\Release\SpamGuiEditor.ipdb
D:\VisualStudio2017Projects\SpamGuiEditor\Release\SpamGuiEditor.iobj
^D:\VisualStudio2017Projects\SpamGuiEditor\SpamGuiEditor\SpamGuiEditor.vcxproj
D:\VisualStudio2017Projects\SpamGuiEditor\Release\SpamGuiEditor.ipdb
D:\VisualStudio2017Projects\SpamGuiEditor\Release\SpamGuiEditor.iobj
^D:\VisualStudio2017Projects\SpamGuiEditor\SpamGuiEditor\SpamGuiEditor.vcxproj
D:\VisualStudio2017Projects\SpamGuiEditor\Release\SpamGuiEditor.ipdb
D:\VisualStudio2017Projects\SpamGuiEditor\Release\SpamGuiEditor.iobj
^D:\VisualStudio2017Projects\SpamGuiEditor\SpamGuiEditor\SpamGuiEditor.vcxproj
D:\VisualStudio2017Projects\SpamGuiEditor\Release\SpamGuiEditor.ipdb
D:\VisualStudio2017Projects\SpamGuiEditor\Release\SpamGuiEditor.iobj
^D:\VisualStudio2017Projects\SpamGuiEditor\SpamGuiEditor\SpamGuiEditor.vcxproj
D:\VisualStudio2017Projects\SpamGuiEditor\Release\SpamGuiEditor.ipdb
D:\VisualStudio2017Projects\SpamGuiEditor\Release\SpamGuiEditor.iobj
^D:\VisualStudio2017Projects\SpamGuiEditor\SpamGuiEditor\SpamGuiEditor.vcxproj
D:\VisualStudio2017Projects\SpamGuiEditor\Release\SpamGuiEditor.ipdb
D:\VisualStudio2017Projects\SpamGuiEditor\Release\SpamGuiEditor.iobj
^D:\VisualStudio2017Projects\SpamGuiEditor\SpamGuiEditor\SpamGuiEditor.vcxproj
D:\VisualStudio2017Projects\SpamGuiEditor\Release\SpamGuiEditor.ipdb
D:\VisualStudio2017Projects\SpamGuiEditor\Release\SpamGuiEditor.iobj
^D:\VisualStudio2017Projects\SpamGuiEditor\SpamGuiEditor\SpamGuiEditor.vcxproj
D:\VisualStudio2017Projects\SpamGuiEditor\Release\SpamGuiEditor.ipdb
D:\VisualStudio2017Projects\SpamGuiEditor\Release\SpamGuiEditor.iobj
^D:\VisualStudio2017Projects\SpamGuiEditor\SpamGuiEditor\SpamGuiEditor.vcxproj
D:\VisualStudio2017Projects\SpamGuiEditor\Release\SpamGuiEditor.ipdb
D:\VisualStudio2017Projects\SpamGuiEditor\Release\SpamGuiEditor.iobj
^D:\VisualStudio2017Projects\SpamGuiEditor\SpamGuiEditor\SpamGuiEditor.vcxproj
D:\VisualStudio2017Projects\SpamGuiEditor\Release\SpamGuiEditor.ipdb
D:\VisualStudio2017Projects\SpamGuiEditor\Release\SpamGuiEditor.iobj
^D:\VisualStudio2017Projects\SpamGuiEditor\SpamGuiEditor\SpamGuiEditor.vcxproj
D:\VisualStudio2017Projects\SpamGuiEditor\Release\SpamGuiEditor.ipdb
D:\VisualStudio2017Projects\SpamGuiEditor\Release\SpamGuiEditor.iobj
^D:\VisualStudio2017Projects\SpamGuiEditor\SpamGuiEditor\SpamGuiEditor.vcxproj
D:\VisualStudio2017Projects\SpamGuiEditor\Release\SpamGuiEditor.ipdb
D:\VisualStudio2017Projects\SpamGuiEditor\Release\SpamGuiEditor.iobj
^D:\VisualStudio2017Projects\SpamGuiEditor\SpamGuiEditor\SpamGuiEditor.vcxproj
D:\VisualStudio2017Projects\SpamGuiEditor\Release\SpamGuiEditor.ipdb
D:\VisualStudio2017Projects\SpamGuiEditor\Release\SpamGuiEditor.iobj
^D:\VisualStudio2017Projects\SpamGuiEditor\SpamGuiEditor\SpamGuiEditor.vcxproj
D:\VisualStudio2017Projects\SpamGuiEditor\Release\SpamGuiEditor.ipdb
D:\VisualStudio2017Projects\SpamGuiEditor\Release\SpamGuiEditor.iobj
^D:\VisualStudio2017Projects\SpamGuiEditor\SpamGuiEditor\SpamGuiEditor.vcxproj
D:\VisualStudio2017Projects\SpamGuiEditor\Release\SpamGuiEditor.ipdb
D:\VisualStudio2017Projects\SpamGuiEditor\Release\SpamGuiEditor.iobj
^D:\VisualStudio2017Projects\SpamGuiEditor\SpamGuiEditor\SpamGuiEditor.vcxproj
D:\VisualStudio2017Projects\SpamGuiEditor\Release\SpamGuiEditor.ipdb
D:\VisualStudio2017Projects\SpamGuiEditor\Release\SpamGuiEditor.iobj
^D:\VisualStudio2017Projects\SpamGuiEditor\SpamGuiEditor\SpamGuiEditor.vcxproj
D:\VisualStudio2017Projects\SpamGuiEditor\Release\SpamGuiEditor.ipdb
D:\VisualStudio2017Projects\SpamGuiEditor\Release\SpamGuiEditor.iobj
^D:\VisualStudio2017Projects\SpamGuiEditor\SpamGuiEditor\SpamGuiEditor.vcxproj
D:\VisualStudio2017Projects\SpamGuiEditor\Release\SpamGuiEditor.ipdb
D:\VisualStudio2017Projects\SpamGuiEditor\Release\SpamGuiEditor.iobj
^D:\VisualStudio2017Projects\SpamGuiEditor\SpamGuiEditor\SpamGuiEditor.vcxproj
D:\VisualStudio2017Projects\SpamGuiEditor\Release\SpamGuiEditor.ipdb
D:\VisualStudio2017Projects\SpamGuiEditor\Release\SpamGuiEditor.iobj
^D:\VisualStudio2017Projects\SpamGuiEditor\SpamGuiEditor\SpamGuiEditor.vcxproj
D:\VisualStudio2017Projects\SpamGuiEditor\Release\SpamGuiEditor.ipdb
D:\VisualStudio2017Projects\SpamGuiEditor\Release\SpamGuiEditor.iobj
^D:\VisualStudio2017Projects\SpamGuiEditor\SpamGuiEditor\SpamGuiEditor.vcxproj
D:\VisualStudio2017Projects\SpamGuiEditor\Release\SpamGuiEditor.ipdb
D:\VisualStudio2017Projects\SpamGuiEditor\Release\SpamGuiEditor.iobj
^D:\VisualStudio2017Projects\SpamGuiEditor\SpamGuiEditor\SpamGuiEditor.vcxproj
D:\VisualStudio2017Projects\SpamGuiEditor\Release\SpamGuiEditor.ipdb
D:\VisualStudio2017Projects\SpamGuiEditor\Release\SpamGuiEditor.iobj
^D:\VisualStudio2017Projects\SpamGuiEditor\SpamGuiEditor\SpamGuiEditor.vcxproj
D:\VisualStudio2017Projects\SpamGuiEditor\Release\SpamGuiEditor.ipdb
D:\VisualStudio2017Projects\SpamGuiEditor\Release\SpamGuiEditor.iobj
