^D:\VISUALSTUDIO2017PROJECTS\PROSPECTIVEENVIRONMENT\PROSPECTIVEENVIRONMENT\SERIALIZATION\SERIALIZEDDATA.CPP
/c /ZI /JMC /nologo /W3 /WX- /diagnostics:classic /sdl /Od /Oy- /D WIN32 /D _DEBUG /D _CONSOLE /D _LIB /D _MBCS /Gm- /EHsc /RTC1 /MDd /GS /fp:precise /Zc:wchar_t /Zc:forScope /Zc:inline /Fo"DEBUG\\" /Fd"DEBUG\VC141.PDB" /Gd /TP /analyze- /FC D:\VISUALSTUDIO2017PROJECTS\PROSPECTIVEENVIRONMENT\PROSPECTIVEENVIRONMENT\SERIALIZATION\SERIALIZEDDATA.CPP
^D:\VISUALSTUDIO2017PROJECTS\SPAMGUIEDITOR\SPAMGUIEDITOR\APPLICATION.CPP
/c /ZI /JMC /nologo /W3 /WX- /diagnostics:classic /sdl /Od /Oy- /D WIN32 /D _DEBUG /D _CONSOLE /D _LIB /D _MBCS /Gm- /EHsc /RTC1 /MDd /GS /fp:precise /Zc:wchar_t /Zc:forScope /Zc:inline /Fo"DEBUG\\" /Fd"DEBUG\VC141.PDB" /Gd /TP /analyze- /FC D:\VISUALSTUDIO2017PROJECTS\SPAMGUIEDITOR\SPAMGUIEDITOR\APPLICATION.CPP
^D:\VISUALSTUDIO2017PROJECTS\SPAMGUIEDITOR\SPAMGUIEDITOR\FPS.CPP
/c /ZI /JMC /nologo /W3 /WX- /diagnostics:classic /sdl /Od /Oy- /D WIN32 /D _DEBUG /D _CONSOLE /D _LIB /D _MBCS /Gm- /EHsc /RTC1 /MDd /GS /fp:precise /Zc:wchar_t /Zc:forScope /Zc:inline /Fo"DEBUG\\" /Fd"DEBUG\VC141.PDB" /Gd /TP /analyze- /FC D:\VISUALSTUDIO2017PROJECTS\SPAMGUIEDITOR\SPAMGUIEDITOR\FPS.CPP
^D:\VISUALSTUDIO2017PROJECTS\SPAMGUIEDITOR\SPAMGUIEDITOR\MAIN.CPP
/c /ZI /JMC /nologo /W3 /WX- /diagnostics:classic /sdl /Od /Oy- /D WIN32 /D _DEBUG /D _CONSOLE /D _LIB /D _MBCS /Gm- /EHsc /RTC1 /MDd /GS /fp:precise /Zc:wchar_t /Zc:forScope /Zc:inline /Fo"DEBUG\\" /Fd"DEBUG\VC141.PDB" /Gd /TP /analyze- /FC D:\VISUALSTUDIO2017PROJECTS\SPAMGUIEDITOR\SPAMGUIEDITOR\MAIN.CPP
^D:\VISUALSTUDIO2017PROJECTS\SPAMGUIEDITOR\SPAMGUIEDITOR\SPAMGUI\BFF_FONT.CPP
/c /ZI /JMC /nologo /W3 /WX- /diagnostics:classic /sdl /Od /Oy- /D WIN32 /D _DEBUG /D _CONSOLE /D _LIB /D _MBCS /Gm- /EHsc /RTC1 /MDd /GS /fp:precise /Zc:wchar_t /Zc:forScope /Zc:inline /Fo"DEBUG\\" /Fd"DEBUG\VC141.PDB" /Gd /TP /analyze- /FC D:\VISUALSTUDIO2017PROJECTS\SPAMGUIEDITOR\SPAMGUIEDITOR\SPAMGUI\BFF_FONT.CPP
^D:\VISUALSTUDIO2017PROJECTS\SPAMGUIEDITOR\SPAMGUIEDITOR\SPAMGUI\GUIBUTTON.CPP
/c /ZI /JMC /nologo /W3 /WX- /diagnostics:classic /sdl /Od /Oy- /D WIN32 /D _DEBUG /D _CONSOLE /D _LIB /D _MBCS /Gm- /EHsc /RTC1 /MDd /GS /fp:precise /Zc:wchar_t /Zc:forScope /Zc:inline /Fo"DEBUG\\" /Fd"DEBUG\VC141.PDB" /Gd /TP /analyze- /FC D:\VISUALSTUDIO2017PROJECTS\SPAMGUIEDITOR\SPAMGUIEDITOR\SPAMGUI\GUIBUTTON.CPP
^D:\VISUALSTUDIO2017PROJECTS\SPAMGUIEDITOR\SPAMGUIEDITOR\SPAMGUI\GUICHECKBOX.CPP
/c /ZI /JMC /nologo /W3 /WX- /diagnostics:classic /sdl /Od /Oy- /D WIN32 /D _DEBUG /D _CONSOLE /D _LIB /D _MBCS /Gm- /EHsc /RTC1 /MDd /GS /fp:precise /Zc:wchar_t /Zc:forScope /Zc:inline /Fo"DEBUG\\" /Fd"DEBUG\VC141.PDB" /Gd /TP /analyze- /FC D:\VISUALSTUDIO2017PROJECTS\SPAMGUIEDITOR\SPAMGUIEDITOR\SPAMGUI\GUICHECKBOX.CPP
^D:\VISUALSTUDIO2017PROJECTS\SPAMGUIEDITOR\SPAMGUIEDITOR\SPAMGUI\GUIEDITBOX.CPP
/c /ZI /JMC /nologo /W3 /WX- /diagnostics:classic /sdl /Od /Oy- /D WIN32 /D _DEBUG /D _CONSOLE /D _LIB /D _MBCS /Gm- /EHsc /RTC1 /MDd /GS /fp:precise /Zc:wchar_t /Zc:forScope /Zc:inline /Fo"DEBUG\\" /Fd"DEBUG\VC141.PDB" /Gd /TP /analyze- /FC D:\VISUALSTUDIO2017PROJECTS\SPAMGUIEDITOR\SPAMGUIEDITOR\SPAMGUI\GUIEDITBOX.CPP
^D:\VISUALSTUDIO2017PROJECTS\SPAMGUIEDITOR\SPAMGUIEDITOR\SPAMGUI\GUIEDITOR.CPP
/c /ZI /JMC /nologo /W3 /WX- /diagnostics:classic /sdl /Od /Oy- /D WIN32 /D _DEBUG /D _CONSOLE /D _LIB /D _MBCS /Gm- /EHsc /RTC1 /MDd /GS /fp:precise /Zc:wchar_t /Zc:forScope /Zc:inline /Fo"DEBUG\\" /Fd"DEBUG\VC141.PDB" /Gd /TP /analyze- /FC D:\VISUALSTUDIO2017PROJECTS\SPAMGUIEDITOR\SPAMGUIEDITOR\SPAMGUI\GUIEDITOR.CPP
^D:\VISUALSTUDIO2017PROJECTS\SPAMGUIEDITOR\SPAMGUIEDITOR\SPAMGUI\GUIFILEDIALOG.CPP
/c /ZI /JMC /nologo /W3 /WX- /diagnostics:classic /sdl /Od /Oy- /D WIN32 /D _DEBUG /D _CONSOLE /D _LIB /D _MBCS /Gm- /EHsc /RTC1 /MDd /GS /fp:precise /Zc:wchar_t /Zc:forScope /Zc:inline /Fo"DEBUG\\" /Fd"DEBUG\VC141.PDB" /Gd /TP /analyze- /FC D:\VISUALSTUDIO2017PROJECTS\SPAMGUIEDITOR\SPAMGUIEDITOR\SPAMGUI\GUIFILEDIALOG.CPP
^D:\VISUALSTUDIO2017PROJECTS\SPAMGUIEDITOR\SPAMGUIEDITOR\SPAMGUI\GUIINPUT.CPP
/c /ZI /JMC /nologo /W3 /WX- /diagnostics:classic /sdl /Od /Oy- /D WIN32 /D _DEBUG /D _CONSOLE /D _LIB /D _MBCS /Gm- /EHsc /RTC1 /MDd /GS /fp:precise /Zc:wchar_t /Zc:forScope /Zc:inline /Fo"DEBUG\\" /Fd"DEBUG\VC141.PDB" /Gd /TP /analyze- /FC D:\VISUALSTUDIO2017PROJECTS\SPAMGUIEDITOR\SPAMGUIEDITOR\SPAMGUI\GUIINPUT.CPP
^D:\VISUALSTUDIO2017PROJECTS\SPAMGUIEDITOR\SPAMGUIEDITOR\SPAMGUI\GUILAYOUT.CPP
/c /ZI /JMC /nologo /W3 /WX- /diagnostics:classic /sdl /Od /Oy- /D WIN32 /D _DEBUG /D _CONSOLE /D _LIB /D _MBCS /Gm- /EHsc /RTC1 /MDd /GS /fp:precise /Zc:wchar_t /Zc:forScope /Zc:inline /Fo"DEBUG\\" /Fd"DEBUG\VC141.PDB" /Gd /TP /analyze- /FC D:\VISUALSTUDIO2017PROJECTS\SPAMGUIEDITOR\SPAMGUIEDITOR\SPAMGUI\GUILAYOUT.CPP
^D:\VISUALSTUDIO2017PROJECTS\SPAMGUIEDITOR\SPAMGUIEDITOR\SPAMGUI\GUIMANAGER.CPP
/c /ZI /JMC /nologo /W3 /WX- /diagnostics:classic /sdl /Od /Oy- /D WIN32 /D _DEBUG /D _CONSOLE /D _LIB /D _MBCS /Gm- /EHsc /RTC1 /MDd /GS /fp:precise /Zc:wchar_t /Zc:forScope /Zc:inline /Fo"DEBUG\\" /Fd"DEBUG\VC141.PDB" /Gd /TP /analyze- /FC D:\VISUALSTUDIO2017PROJECTS\SPAMGUIEDITOR\SPAMGUIEDITOR\SPAMGUI\GUIMANAGER.CPP
^D:\VISUALSTUDIO2017PROJECTS\SPAMGUIEDITOR\SPAMGUIEDITOR\SPAMGUI\GUIRADIOBUTTON.CPP
/c /ZI /JMC /nologo /W3 /WX- /diagnostics:classic /sdl /Od /Oy- /D WIN32 /D _DEBUG /D _CONSOLE /D _LIB /D _MBCS /Gm- /EHsc /RTC1 /MDd /GS /fp:precise /Zc:wchar_t /Zc:forScope /Zc:inline /Fo"DEBUG\\" /Fd"DEBUG\VC141.PDB" /Gd /TP /analyze- /FC D:\VISUALSTUDIO2017PROJECTS\SPAMGUIEDITOR\SPAMGUIEDITOR\SPAMGUI\GUIRADIOBUTTON.CPP
^D:\VISUALSTUDIO2017PROJECTS\SPAMGUIEDITOR\SPAMGUIEDITOR\SPAMGUI\GUIREFBUTTON.CPP
/c /ZI /JMC /nologo /W3 /WX- /diagnostics:classic /sdl /Od /Oy- /D WIN32 /D _DEBUG /D _CONSOLE /D _LIB /D _MBCS /Gm- /EHsc /RTC1 /MDd /GS /fp:precise /Zc:wchar_t /Zc:forScope /Zc:inline /Fo"DEBUG\\" /Fd"DEBUG\VC141.PDB" /Gd /TP /analyze- /FC D:\VISUALSTUDIO2017PROJECTS\SPAMGUIEDITOR\SPAMGUIEDITOR\SPAMGUI\GUIREFBUTTON.CPP
^D:\VISUALSTUDIO2017PROJECTS\SPAMGUIEDITOR\SPAMGUIEDITOR\SPAMGUI\GUIRENDERER.CPP
/c /ZI /JMC /nologo /W3 /WX- /diagnostics:classic /sdl /Od /Oy- /D WIN32 /D _DEBUG /D _CONSOLE /D _LIB /D _MBCS /Gm- /EHsc /RTC1 /MDd /GS /fp:precise /Zc:wchar_t /Zc:forScope /Zc:inline /Fo"DEBUG\\" /Fd"DEBUG\VC141.PDB" /Gd /TP /analyze- /FC D:\VISUALSTUDIO2017PROJECTS\SPAMGUIEDITOR\SPAMGUIEDITOR\SPAMGUI\GUIRENDERER.CPP
^D:\VISUALSTUDIO2017PROJECTS\SPAMGUIEDITOR\SPAMGUIEDITOR\SPAMGUI\GUIRENDERERSDL.CPP
/c /ZI /JMC /nologo /W3 /WX- /diagnostics:classic /sdl /Od /Oy- /D WIN32 /D _DEBUG /D _CONSOLE /D _LIB /D _MBCS /Gm- /EHsc /RTC1 /MDd /GS /fp:precise /Zc:wchar_t /Zc:forScope /Zc:inline /Fo"DEBUG\\" /Fd"DEBUG\VC141.PDB" /Gd /TP /analyze- /FC D:\VISUALSTUDIO2017PROJECTS\SPAMGUIEDITOR\SPAMGUIEDITOR\SPAMGUI\GUIRENDERERSDL.CPP
^D:\VISUALSTUDIO2017PROJECTS\SPAMGUIEDITOR\SPAMGUIEDITOR\SPAMGUI\GUISCROLLBAR.CPP
/c /ZI /JMC /nologo /W3 /WX- /diagnostics:classic /sdl /Od /Oy- /D WIN32 /D _DEBUG /D _CONSOLE /D _LIB /D _MBCS /Gm- /EHsc /RTC1 /MDd /GS /fp:precise /Zc:wchar_t /Zc:forScope /Zc:inline /Fo"DEBUG\\" /Fd"DEBUG\VC141.PDB" /Gd /TP /analyze- /FC D:\VISUALSTUDIO2017PROJECTS\SPAMGUIEDITOR\SPAMGUIEDITOR\SPAMGUI\GUISCROLLBAR.CPP
^D:\VISUALSTUDIO2017PROJECTS\SPAMGUIEDITOR\SPAMGUIEDITOR\SPAMGUI\GUISHOPDIALOG.CPP
/c /ZI /JMC /nologo /W3 /WX- /diagnostics:classic /sdl /Od /Oy- /D WIN32 /D _DEBUG /D _CONSOLE /D _LIB /D _MBCS /Gm- /EHsc /RTC1 /MDd /GS /fp:precise /Zc:wchar_t /Zc:forScope /Zc:inline /Fo"DEBUG\\" /Fd"DEBUG\VC141.PDB" /Gd /TP /analyze- /FC D:\VISUALSTUDIO2017PROJECTS\SPAMGUIEDITOR\SPAMGUIEDITOR\SPAMGUI\GUISHOPDIALOG.CPP
^D:\VISUALSTUDIO2017PROJECTS\SPAMGUIEDITOR\SPAMGUIEDITOR\SPAMGUI\GUITEXT.CPP
/c /ZI /JMC /nologo /W3 /WX- /diagnostics:classic /sdl /Od /Oy- /D WIN32 /D _DEBUG /D _CONSOLE /D _LIB /D _MBCS /Gm- /EHsc /RTC1 /MDd /GS /fp:precise /Zc:wchar_t /Zc:forScope /Zc:inline /Fo"DEBUG\\" /Fd"DEBUG\VC141.PDB" /Gd /TP /analyze- /FC D:\VISUALSTUDIO2017PROJECTS\SPAMGUIEDITOR\SPAMGUIEDITOR\SPAMGUI\GUITEXT.CPP
^D:\VISUALSTUDIO2017PROJECTS\SPAMGUIEDITOR\SPAMGUIEDITOR\SPAMGUI\GUITREEVIEW.CPP
/c /ZI /JMC /nologo /W3 /WX- /diagnostics:classic /sdl /Od /Oy- /D WIN32 /D _DEBUG /D _CONSOLE /D _LIB /D _MBCS /Gm- /EHsc /RTC1 /MDd /GS /fp:precise /Zc:wchar_t /Zc:forScope /Zc:inline /Fo"DEBUG\\" /Fd"DEBUG\VC141.PDB" /Gd /TP /analyze- /FC D:\VISUALSTUDIO2017PROJECTS\SPAMGUIEDITOR\SPAMGUIEDITOR\SPAMGUI\GUITREEVIEW.CPP
^D:\VISUALSTUDIO2017PROJECTS\SPAMGUIEDITOR\SPAMGUIEDITOR\SPAMGUI\GUITREEVIEWLAYOUTNODE.CPP
/c /ZI /JMC /nologo /W3 /WX- /diagnostics:classic /sdl /Od /Oy- /D WIN32 /D _DEBUG /D _CONSOLE /D _LIB /D _MBCS /Gm- /EHsc /RTC1 /MDd /GS /fp:precise /Zc:wchar_t /Zc:forScope /Zc:inline /Fo"DEBUG\\" /Fd"DEBUG\VC141.PDB" /Gd /TP /analyze- /FC D:\VISUALSTUDIO2017PROJECTS\SPAMGUIEDITOR\SPAMGUIEDITOR\SPAMGUI\GUITREEVIEWLAYOUTNODE.CPP
^D:\VISUALSTUDIO2017PROJECTS\SPAMGUIEDITOR\SPAMGUIEDITOR\SPAMGUI\GUITREEVIEWNODE.CPP
/c /ZI /JMC /nologo /W3 /WX- /diagnostics:classic /sdl /Od /Oy- /D WIN32 /D _DEBUG /D _CONSOLE /D _LIB /D _MBCS /Gm- /EHsc /RTC1 /MDd /GS /fp:precise /Zc:wchar_t /Zc:forScope /Zc:inline /Fo"DEBUG\\" /Fd"DEBUG\VC141.PDB" /Gd /TP /analyze- /FC D:\VISUALSTUDIO2017PROJECTS\SPAMGUIEDITOR\SPAMGUIEDITOR\SPAMGUI\GUITREEVIEWNODE.CPP
^D:\VISUALSTUDIO2017PROJECTS\SPAMGUIEDITOR\SPAMGUIEDITOR\SPAMGUI\GUIWINDOW.CPP
/c /ZI /JMC /nologo /W3 /WX- /diagnostics:classic /sdl /Od /Oy- /D WIN32 /D _DEBUG /D _CONSOLE /D _LIB /D _MBCS /Gm- /EHsc /RTC1 /MDd /GS /fp:precise /Zc:wchar_t /Zc:forScope /Zc:inline /Fo"DEBUG\\" /Fd"DEBUG\VC141.PDB" /Gd /TP /analyze- /FC D:\VISUALSTUDIO2017PROJECTS\SPAMGUIEDITOR\SPAMGUIEDITOR\SPAMGUI\GUIWINDOW.CPP
